<?xml version="1.0" encoding="UTF-8" standalone="no"?>
<!-- Created with Inkscape (http://www.inkscape.org/) -->

<svg
   xmlns:dc="http://purl.org/dc/elements/1.1/"
   xmlns:cc="http://creativecommons.org/ns#"
   xmlns:rdf="http://www.w3.org/1999/02/22-rdf-syntax-ns#"
   xmlns:svg="http://www.w3.org/2000/svg"
   xmlns="http://www.w3.org/2000/svg"
   xmlns:sodipodi="http://sodipodi.sourceforge.net/DTD/sodipodi-0.dtd"
   xmlns:inkscape="http://www.inkscape.org/namespaces/inkscape"
   width="100"
   height="100"
   viewBox="0 0 26.458333 26.458334"
   version="1.1"
   id="svg191"
   inkscape:version="0.92.4 5da689c313, 2019-01-14"
   sodipodi:docname="eight.svg">
  <defs
     id="defs185" />
  <sodipodi:namedview
     id="base"
     pagecolor="#ffffff"
     bordercolor="#666666"
     borderopacity="1.0"
     inkscape:pageopacity="0.0"
     inkscape:pageshadow="2"
     inkscape:zoom="3.959798"
     inkscape:cx="-92.855029"
     inkscape:cy="38.618584"
     inkscape:document-units="px"
     inkscape:current-layer="layer1"
     showgrid="false"
     units="px"
     inkscape:window-width="2472"
     inkscape:window-height="1379"
     inkscape:window-x="61"
     inkscape:window-y="61"
     inkscape:window-maximized="1" />
  <metadata
     id="metadata188">
    <rdf:RDF>
      <cc:Work
         rdf:about="">
        <dc:format>image/svg+xml</dc:format>
        <dc:type
           rdf:resource="http://purl.org/dc/dcmitype/StillImage" />
        <dc:title></dc:title>
      </cc:Work>
    </rdf:RDF>
  </metadata>
  <g
     inkscape:label="Layer 1"
     inkscape:groupmode="layer"
     id="layer1"
     transform="translate(0,-270.54165)">
    <path
       style="fill:#ffffff;fill-opacity:1;stroke:#000000;stroke-width:0.30123869;stroke-opacity:1"
       d="M 26.262694,283.80356 A 12.932626,12.932626 0 0 1 13.330069,296.73618 12.932626,12.932626 0 0 1 0.39744282,283.80356 12.932626,12.932626 0 0 1 13.330069,270.87093 12.932626,12.932626 0 0 1 26.262694,283.80356 Z"
       id="path193" />
    <g
       aria-label="8
"
       transform="matrix(0.26458333,0,0,0.26458333,1.5314274,270.20756)"
       style="font-style:normal;font-weight:normal;font-size:66.66667175px;line-height:1.25;font-family:sans-serif;letter-spacing:0px;word-spacing:0px;fill:#000000;fill-opacity:1;stroke:none"
       id="flowRoot853">
      <path
         d="m 45.435548,53.324873 q -4.6875,0 -7.389323,2.50651 -2.669271,2.506511 -2.669271,6.901042 0,4.394532 2.669271,6.901043 2.701823,2.50651 7.389323,2.50651 4.687501,0 7.389324,-2.50651 2.701823,-2.539063 2.701823,-6.901043 0,-4.394531 -2.701823,-6.901042 -2.669271,-2.50651 -7.389324,-2.50651 z m -6.575521,-2.79948 q -4.231771,-1.041667 -6.608073,-3.938802 -2.34375,-2.897136 -2.34375,-7.063803 0,-5.826823 4.134114,-9.21224 4.166667,-3.385417 11.39323,-3.385417 7.259116,0 11.393231,3.385417 4.134114,3.385417 4.134114,9.21224 0,4.166667 -2.376302,7.063803 -2.34375,2.897135 -6.542969,3.938802 4.752604,1.106771 7.389323,4.329428 2.669271,3.222656 2.669271,7.877604 0,7.063803 -4.329427,10.839845 -4.296875,3.776042 -12.337241,3.776042 -8.040365,0 -12.369792,-3.776042 -4.296875,-3.776042 -4.296875,-10.839845 0,-4.654948 2.669271,-7.877604 2.669271,-3.222657 7.421875,-4.329428 z M 36.451173,40.141278 q 0,3.776042 2.34375,5.891927 2.376302,2.115886 6.640625,2.115886 4.231772,0 6.608074,-2.115886 2.408854,-2.115885 2.408854,-5.891927 0,-3.776042 -2.408854,-5.891928 -2.376302,-2.115885 -6.608074,-2.115885 -4.264323,0 -6.640625,2.115885 -2.34375,2.115886 -2.34375,5.891928 z"
         style=""
         id="path1502" />
    </g>
  </g>
</svg>
