<?xml version="1.0" encoding="UTF-8" standalone="no"?>
<!-- Created with Inkscape (http://www.inkscape.org/) -->

<svg
   xmlns:dc="http://purl.org/dc/elements/1.1/"
   xmlns:cc="http://creativecommons.org/ns#"
   xmlns:rdf="http://www.w3.org/1999/02/22-rdf-syntax-ns#"
   xmlns:svg="http://www.w3.org/2000/svg"
   xmlns="http://www.w3.org/2000/svg"
   xmlns:sodipodi="http://sodipodi.sourceforge.net/DTD/sodipodi-0.dtd"
   xmlns:inkscape="http://www.inkscape.org/namespaces/inkscape"
   width="100"
   height="100"
   viewBox="0 0 26.458333 26.458334"
   version="1.1"
   id="svg191"
   inkscape:version="0.92.4 5da689c313, 2019-01-14"
   sodipodi:docname="seven.svg">
  <defs
     id="defs185" />
  <sodipodi:namedview
     id="base"
     pagecolor="#ffffff"
     bordercolor="#666666"
     borderopacity="1.0"
     inkscape:pageopacity="0.0"
     inkscape:pageshadow="2"
     inkscape:zoom="3.959798"
     inkscape:cx="-92.855029"
     inkscape:cy="34.830512"
     inkscape:document-units="px"
     inkscape:current-layer="layer1"
     showgrid="false"
     units="px"
     inkscape:window-width="2472"
     inkscape:window-height="1379"
     inkscape:window-x="61"
     inkscape:window-y="61"
     inkscape:window-maximized="1" />
  <metadata
     id="metadata188">
    <rdf:RDF>
      <cc:Work
         rdf:about="">
        <dc:format>image/svg+xml</dc:format>
        <dc:type
           rdf:resource="http://purl.org/dc/dcmitype/StillImage" />
        <dc:title></dc:title>
      </cc:Work>
    </rdf:RDF>
  </metadata>
  <g
     inkscape:label="Layer 1"
     inkscape:groupmode="layer"
     id="layer1"
     transform="translate(0,-270.54165)">
    <path
       style="fill:#ffffff;fill-opacity:1;stroke:#000000;stroke-width:0.30123869;stroke-opacity:1"
       d="M 26.262694,283.80356 A 12.932626,12.932626 0 0 1 13.330069,296.73618 12.932626,12.932626 0 0 1 0.39744282,283.80356 12.932626,12.932626 0 0 1 13.330069,270.87093 12.932626,12.932626 0 0 1 26.262694,283.80356 Z"
       id="path193" />
    <g
       aria-label="7
"
       transform="matrix(0.26458333,0,0,0.26458333,1.5314274,270.73673)"
       style="font-style:normal;font-weight:normal;font-size:66.66667175px;line-height:1.25;font-family:sans-serif;letter-spacing:0px;word-spacing:0px;fill:#000000;fill-opacity:1;stroke:none"
       id="flowRoot853">
      <path
         d="m 29.712891,27.804037 h 31.250002 v 2.79948 l -17.64323,45.800784 h -6.86849 L 53.052737,33.337892 H 29.712891 Z"
         style=""
         id="path1384" />
    </g>
  </g>
</svg>
